Week 3 - Working with data in R
…
read_tsv() prints a message telling us which types it
has assigned to each of the columns it has read, although in this case
the table has quite a lot of columns and it only outputs details about
the first few.

If we print the clinical data set we can see that
read_tsv() created a tibble.

metabric

## # A tibble: 2,509 × 20
##    `Patient ID` Sample…¹ Cance…² Cance…³ Mutat…⁴ 3-Gen…⁵ Age a…⁶ Cellu…⁷ Chemo…⁸
##    <chr>        <chr>    <chr>   <chr>     <dbl> <chr>     <dbl> <chr>   <chr>  
##  1 MB-0000      MB-0000  Breast… Breast…      NA ER-/HE…    75.6 <NA>    NO     
##  2 MB-0002      MB-0002  Breast… Breast…       2 ER+/HE…    43.2 High    NO     
##  3 MB-0005      MB-0005  Breast… Breast…       2 <NA>       48.9 High    YES    
##  4 MB-0006      MB-0006  Breast… Breast…       1 <NA>       47.7 Modera… YES    
##  5 MB-0008      MB-0008  Breast… Breast…       2 ER+/HE…    77.0 High    YES    
##  6 MB-0010      MB-0010  Breast… Breast…       4 ER+/HE…    78.8 Modera… NO     
##  7 MB-0014      MB-0014  Breast… Breast…       4 <NA>       56.4 Modera… YES    
##  8 MB-0020      MB-0020  Breast… Breast…      NA ER-/HE…    70   High    YES    
##  9 MB-0022      MB-0022  Breast… Breast…       1 <NA>       89.1 Modera… NO     
## 10 MB-0025      MB-0025  Breast… Breast…       5 <NA>       76.2 <NA>    <NA>   
## # … with 2,499 more rows, 11 more variables: Cohort <dbl>, `ER Status` <chr>,
## #   `ER status measured by IHC` <chr>, `HER2 Status` <chr>,
## #   `HER2 status measured by SNP6` <chr>, `Hormone Therapy` <chr>,
## #   `Inferred Menopausal State` <chr>, `Integrative Cluster` <chr>,
## #   `Lymph nodes examined positive` <dbl>, `Neoplasm Histologic Grade` <dbl>,
## #   `Nottingham prognostic index` <dbl>, and abbreviated variable names
## #   ¹​`Sample ID`, ²​`Cancer Type`, ³​`Cancer Type Detailed`, ⁴​`Mutation Count`, …
…
We’ll also introduce the pipe operator,
%>%, for chaining operations together
into mini workflows in a way that makes for more readable and
maintainable code.

We’ll again use the METABRIC data set to illustrate how these
operations work.

metabric <- read_csv("data/metabric_clinical_and_expression_data.csv")
metabric

## # A tibble: 1,904 × 32
##    Patient_ID Cohort Age_at_di…¹ Survi…² Survi…³ Vital…⁴ Chemo…⁵ Radio…⁶ Tumou…⁷
##    <chr>       <dbl>       <dbl>   <dbl> <chr>   <chr>   <chr>   <chr>     <dbl>
##  1 MB-0000         1        75.6   140.  LIVING  Living  NO      YES          22
##  2 MB-0002         1        43.2    84.6 LIVING  Living  NO      YES          10
##  3 MB-0005         1        48.9   164.  DECEAS… Died o… YES     NO           15
##  4 MB-0006         1        47.7   165.  LIVING  Living  YES     YES          25
##  5 MB-0008         1        77.0    41.4 DECEAS… Died o… YES     YES          40
##  6 MB-0010         1        78.8     7.8 DECEAS… Died o… NO      YES          31
##  7 MB-0014         1        56.4   164.  LIVING  Living  YES     YES          10
##  8 MB-0022         1        89.1    99.5 DECEAS… Died o… NO      YES          29
##  9 MB-0028         1        86.4    36.6 DECEAS… Died o… NO      YES          16
## 10 MB-0035         1        84.2    36.3 DECEAS… Died o… NO      NO           28
## # … with 1,894 more rows, 23 more variables: Tumour_stage <dbl>,
## #   Neoplasm_histologic_grade <dbl>, Lymph_nodes_examined_positive <dbl>,
## #   Lymph_node_status <dbl>, Cancer_type <chr>, ER_status <chr>,
## #   PR_status <chr>, HER2_status <chr>, HER2_status_measured_by_SNP6 <chr>,
## #   PAM50 <chr>, `3-gene_classifier` <chr>, Nottingham_prognostic_index <dbl>,
## #   Cellularity <chr>, Integrative_cluster <chr>, Mutation_count <dbl>,
## #   ESR1 <dbl>, ERBB2 <dbl>, PGR <dbl>, TP53 <dbl>, PIK3CA <dbl>, …
…
The filter verb allows you to choose
rows from a data frame that match some specified criteria. The criteria
are based on values of variables and can make use of comparison
operators such as ==, >, <
and !=.

For example, to filter the METABRIC data set so that it only contains
observations for those patients who died of breast cancer we can use
filter() as follows.

deceased <- filter(metabric, Vital_status == "Died of Disease")
deceased

## # A tibble: 622 × 32
##    Patient_ID Cohort Age_at_di…¹ Survi…² Survi…³ Vital…⁴ Chemo…⁵ Radio…⁶ Tumou…⁷
##    <chr>       <dbl>       <dbl>   <dbl> <chr>   <chr>   <chr>   <chr>     <dbl>
##  1 MB-0005         1        48.9  164.   DECEAS… Died o… YES     NO           15
##  2 MB-0008         1        77.0   41.4  DECEAS… Died o… YES     YES          40
##  3 MB-0010         1        78.8    7.8  DECEAS… Died o… NO      YES          31
##  4 MB-0035         1        84.2   36.3  DECEAS… Died o… NO      NO           28
##  5 MB-0036         1        85.5  132.   DECEAS… Died o… NO      YES          22
##  6 MB-0079         1        50.4   28.5  DECEAS… Died o… YES     YES          40
##  7 MB-0083         1        64.8   86.1  DECEAS… Died o… NO      YES          13
##  8 MB-0100         1        68.7    8.07 DECEAS… Died o… YES     YES          39
##  9 MB-0102         1        51.4  141.   DECEAS… Died o… YES     YES          40
## 10 MB-0108         1        43.2   42.7  DECEAS… Died o… YES     YES          18
## # … with 612 more rows, 23 more variables: Tumour_stage <dbl>,
## #   Neoplasm_histologic_grade <dbl>, Lymph_nodes_examined_positive <dbl>,
## #   Lymph_node_status <dbl>, Cancer_type <chr>, ER_status <chr>,
## #   PR_status <chr>, HER2_status <chr>, HER2_status_measured_by_SNP6 <chr>,
## #   PAM50 <chr>, `3-gene_classifier` <chr>, Nottingham_prognostic_index <dbl>,
## #   Cellularity <chr>, Integrative_cluster <chr>, Mutation_count <dbl>,
## #   ESR1 <dbl>, ERBB2 <dbl>, PGR <dbl>, TP53 <dbl>, PIK3CA <dbl>, …
…
Filtering based on a logical variable is the most simple type of
filtering of all. We don’t have any logical variables in our METABRIC
data set so we’ll create one from the binary
Survival_status variable to use as an example.

# create a new logical variable called 'Deceased'
metabric$Deceased <- metabric$Survival_status == "DECEASED"
#
# filtering based on a logical variable - only selects TRUE values
deceased <- filter(metabric, Deceased)
#
# only display those columns we're interested in
deceased[, c("Patient_ID", "Survival_status", "Vital_status", "Deceased")]

## # A tibble: 1,103 × 4
##    Patient_ID Survival_status Vital_status         Deceased
##    <chr>      <chr>           <chr>                <lgl>   
##  1 MB-0005    DECEASED        Died of Disease      TRUE    
##  2 MB-0008    DECEASED        Died of Disease      TRUE    
##  3 MB-0010    DECEASED        Died of Disease      TRUE    
##  4 MB-0022    DECEASED        Died of Other Causes TRUE    
##  5 MB-0028    DECEASED        Died of Other Causes TRUE    
##  6 MB-0035    DECEASED        Died of Disease      TRUE    
##  7 MB-0036    DECEASED        Died of Disease      TRUE    
##  8 MB-0046    DECEASED        Died of Other Causes TRUE    
##  9 MB-0079    DECEASED        Died of Disease      TRUE    
## 10 MB-0083    DECEASED        Died of Disease      TRUE    
## # … with 1,093 more rows
…
filter() only retains rows where the condition if
TRUE; both FALSE and NA values
are filtered out.

We can apply more than one condition in our filtering operation, for
example the patients who were still alive at the time of the METABRIC
study and had survived for more than 10 years (120 months).

filter(metabric, Survival_status == "LIVING", Survival_time > 120)

## # A tibble: 545 × 33
##    Patient_ID Cohort Age_at_di…¹ Survi…² Survi…³ Vital…⁴ Chemo…⁵ Radio…⁶ Tumou…⁷
##    <chr>       <dbl>       <dbl>   <dbl> <chr>   <chr>   <chr>   <chr>     <dbl>
##  1 MB-0000         1        75.6    140. LIVING  Living  NO      YES          22
##  2 MB-0006         1        47.7    165. LIVING  Living  YES     YES          25
##  3 MB-0014         1        56.4    164. LIVING  Living  YES     YES          10
##  4 MB-0039         1        70.9    164. LIVING  Living  NO      YES          21
##  5 MB-0045         1        45.3    165. LIVING  Living  YES     YES          19
##  6 MB-0053         1        70.0    161. LIVING  Living  NO      YES          23
##  7 MB-0054         1        66.9    160. LIVING  Living  NO      YES          36
##  8 MB-0060         1        45.4    141. LIVING  Living  YES     YES          23
##  9 MB-0062         1        52.1    154. LIVING  Living  YES     YES          17
## 10 MB-0066         1        61.5    157. LIVING  Living  NO      YES          16
## # … with 535 more rows, 24 more variables: Tumour_stage <dbl>,
## #   Neoplasm_histologic_grade <dbl>, Lymph_nodes_examined_positive <dbl>,
## #   Lymph_node_status <dbl>, Cancer_type <chr>, ER_status <chr>,
## #   PR_status <chr>, HER2_status <chr>, HER2_status_measured_by_SNP6 <chr>,
## #   PAM50 <chr>, `3-gene_classifier` <chr>, Nottingham_prognostic_index <dbl>,
## #   Cellularity <chr>, Integrative_cluster <chr>, Mutation_count <dbl>,
## #   ESR1 <dbl>, ERBB2 <dbl>, PGR <dbl>, TP53 <dbl>, PIK3CA <dbl>, …
…
Using the $ operator is quite convenient for selecting a
single column and extracting the values as a vector. Selecting several
columns using the [] subsetting operator is a bit more
cumbersome. For example, in our look at filtering rows, we considered
two different variables in our data set that are concerned with the
living/deceased status of patients. When printing out the results we
selected just those columns along with the patient identifier and the
newly created Deceased column.

deceased[, c("Patient_ID", "Survival_status", "Vital_status", "Deceased")]

## # A tibble: 1,103 × 4
##    Patient_ID Survival_status Vital_status         Deceased
##    <chr>      <chr>           <chr>                <lgl>   
##  1 MB-0005    DECEASED        Died of Disease      TRUE    
##  2 MB-0008    DECEASED        Died of Disease      TRUE    
##  3 MB-0010    DECEASED        Died of Disease      TRUE    
##  4 MB-0022    DECEASED        Died of Other Causes TRUE    
##  5 MB-0028    DECEASED        Died of Other Causes TRUE    
##  6 MB-0035    DECEASED        Died of Disease      TRUE    
##  7 MB-0036    DECEASED        Died of Disease      TRUE    
##  8 MB-0046    DECEASED        Died of Other Causes TRUE    
##  9 MB-0079    DECEASED        Died of Disease      TRUE    
## 10 MB-0083    DECEASED        Died of Disease      TRUE    
## # … with 1,093 more rows

The select() function from dplyr is
simpler.

select(metabric, Patient_ID, Survival_status, Vital_status, Deceased)

## # A tibble: 1,904 × 4
##    Patient_ID Survival_status Vital_status         Deceased
##    <chr>      <chr>           <chr>                <lgl>   
##  1 MB-0000    LIVING          Living               FALSE   
##  2 MB-0002    LIVING          Living               FALSE   
##  3 MB-0005    DECEASED        Died of Disease      TRUE    
##  4 MB-0006    LIVING          Living               FALSE   
##  5 MB-0008    DECEASED        Died of Disease      TRUE    
##  6 MB-0010    DECEASED        Died of Disease      TRUE    
##  7 MB-0014    LIVING          Living               FALSE   
##  8 MB-0022    DECEASED        Died of Other Causes TRUE    
##  9 MB-0028    DECEASED        Died of Other Causes TRUE    
## 10 MB-0035    DECEASED        Died of Disease      TRUE    
## # … with 1,894 more rows

Notice the similarities with the filter() function. The
first argument is the data frame we are operating on and the arguments
that follow on are specific to the operation in question, in this case,
the variables (columns) to select. Note that the variables do not need
to be put in quotes, and the returned value is another data frame, even
if only one column was selected.

We can alter the order of the variables (columns).

select(metabric, Patient_ID, Vital_status, Survival_status, Deceased)

## # A tibble: 1,904 × 4
##    Patient_ID Vital_status         Survival_status Deceased
##    <chr>      <chr>                <chr>           <lgl>   
##  1 MB-0000    Living               LIVING          FALSE   
##  2 MB-0002    Living               LIVING          FALSE   
##  3 MB-0005    Died of Disease      DECEASED        TRUE    
##  4 MB-0006    Living               LIVING          FALSE   
##  5 MB-0008    Died of Disease      DECEASED        TRUE    
##  6 MB-0010    Died of Disease      DECEASED        TRUE    
##  7 MB-0014    Living               LIVING          FALSE   
##  8 MB-0022    Died of Other Causes DECEASED        TRUE    
##  9 MB-0028    Died of Other Causes DECEASED        TRUE    
## 10 MB-0035    Died of Disease      DECEASED        TRUE    
## # … with 1,894 more rows

We can also select a range of columns using
:, e.g. to select the patient identifier
and all the columns between Tumour_size and
Cancer_type we could run the following
select() command.

select(metabric, Patient_ID, Chemotherapy:Tumour_stage)

## # A tibble: 1,904 × 5
##    Patient_ID Chemotherapy Radiotherapy Tumour_size Tumour_stage
##    <chr>      <chr>        <chr>              <dbl>        <dbl>
##  1 MB-0000    NO           YES                   22            2
##  2 MB-0002    NO           YES                   10            1
##  3 MB-0005    YES          NO                    15            2
##  4 MB-0006    YES          YES                   25            2
##  5 MB-0008    YES          YES                   40            2
##  6 MB-0010    NO           YES                   31            4
##  7 MB-0014    YES          YES                   10            2
##  8 MB-0022    NO           YES                   29            2
##  9 MB-0028    NO           YES                   16            2
## 10 MB-0035    NO           NO                    28            2
## # … with 1,894 more rows

The help page for select points to some special
functions that can be used within select(). We can find all
the columns, for example, that contain the term “status” using
contains().

select(metabric, contains("status"))

## # A tibble: 1,904 × 7
##    Survival_status Vital_status         Lymph_…¹ ER_st…² PR_st…³ HER2_…⁴ HER2_…⁵
##    <chr>           <chr>                   <dbl> <chr>   <chr>   <chr>   <chr>  
##  1 LIVING          Living                      3 Positi… Negati… Negati… NEUTRAL
##  2 LIVING          Living                      1 Positi… Positi… Negati… NEUTRAL
##  3 DECEASED        Died of Disease             2 Positi… Positi… Negati… NEUTRAL
##  4 LIVING          Living                      2 Positi… Positi… Negati… NEUTRAL
##  5 DECEASED        Died of Disease             3 Positi… Positi… Negati… NEUTRAL
##  6 DECEASED        Died of Disease             1 Positi… Positi… Negati… NEUTRAL
##  7 LIVING          Living                      2 Positi… Positi… Negati… LOSS   
##  8 DECEASED        Died of Other Causes        2 Positi… Negati… Negati… NEUTRAL
##  9 DECEASED        Died of Other Causes        2 Positi… Negati… Negati… GAIN   
## 10 DECEASED        Died of Disease             1 Positi… Negati… Negati… LOSS   
## # … with 1,894 more rows, and abbreviated variable names ¹​Lymph_node_status,
## #   ²​ER_status, ³​PR_status, ⁴​HER2_status, ⁵​HER2_status_measured_by_SNP6

If we only wanted those ending with “status” we could use
ends_with() instead.

select(metabric, ends_with("status"))

## # A tibble: 1,904 × 6
##    Survival_status Vital_status         Lymph_node_sta…¹ ER_st…² PR_st…³ HER2_…⁴
##    <chr>           <chr>                           <dbl> <chr>   <chr>   <chr>  
##  1 LIVING          Living                              3 Positi… Negati… Negati…
##  2 LIVING          Living                              1 Positi… Positi… Negati…
##  3 DECEASED        Died of Disease                     2 Positi… Positi… Negati…
##  4 LIVING          Living                              2 Positi… Positi… Negati…
##  5 DECEASED        Died of Disease                     3 Positi… Positi… Negati…
##  6 DECEASED        Died of Disease                     1 Positi… Positi… Negati…
##  7 LIVING          Living                              2 Positi… Positi… Negati…
##  8 DECEASED        Died of Other Causes                2 Positi… Negati… Negati…
##  9 DECEASED        Died of Other Causes                2 Positi… Negati… Negati…
## 10 DECEASED        Died of Disease                     1 Positi… Negati… Negati…
## # … with 1,894 more rows, and abbreviated variable names ¹​Lymph_node_status,
## #   ²​ER_status, ³​PR_status, ⁴​HER2_status

We can also select those columns we’re not interested in and that
shouldn’t be included by prefixing the columns with
-.

select(metabric, -Cohort)

## # A tibble: 1,904 × 32
##    Patient_ID Age_at_d…¹ Survi…² Survi…³ Vital…⁴ Chemo…⁵ Radio…⁶ Tumou…⁷ Tumou…⁸
##    <chr>           <dbl>   <dbl> <chr>   <chr>   <chr>   <chr>     <dbl>   <dbl>
##  1 MB-0000          75.6   140.  LIVING  Living  NO      YES          22       2
##  2 MB-0002          43.2    84.6 LIVING  Living  NO      YES          10       1
##  3 MB-0005          48.9   164.  DECEAS… Died o… YES     NO           15       2
##  4 MB-0006          47.7   165.  LIVING  Living  YES     YES          25       2
##  5 MB-0008          77.0    41.4 DECEAS… Died o… YES     YES          40       2
##  6 MB-0010          78.8     7.8 DECEAS… Died o… NO      YES          31       4
##  7 MB-0014          56.4   164.  LIVING  Living  YES     YES          10       2
##  8 MB-0022          89.1    99.5 DECEAS… Died o… NO      YES          29       2
##  9 MB-0028          86.4    36.6 DECEAS… Died o… NO      YES          16       2
## 10 MB-0035          84.2    36.3 DECEAS… Died o… NO      NO           28       2
## # … with 1,894 more rows, 23 more variables: Neoplasm_histologic_grade <dbl>,
## #   Lymph_nodes_examined_positive <dbl>, Lymph_node_status <dbl>,
## #   Cancer_type <chr>, ER_status <chr>, PR_status <chr>, HER2_status <chr>,
## #   HER2_status_measured_by_SNP6 <chr>, PAM50 <chr>, `3-gene_classifier` <chr>,
## #   Nottingham_prognostic_index <dbl>, Cellularity <chr>,
## #   Integrative_cluster <chr>, Mutation_count <dbl>, ESR1 <dbl>, ERBB2 <dbl>,
## #   PGR <dbl>, TP53 <dbl>, PIK3CA <dbl>, GATA3 <dbl>, FOXA1 <dbl>, …

You can use a combination of explicit naming, ranges, helper
functions and negation to select the columns of interest.

selected_columns <- select(metabric, Patient_ID, starts_with("Tumour_"), `3-gene_classifier`:Integrative_cluster, -Cellularity)
selected_columns

## # A tibble: 1,904 × 6
##    Patient_ID Tumour_size Tumour_stage `3-gene_classifier`   Nottingha…¹ Integ…²
##    <chr>            <dbl>        <dbl> <chr>                       <dbl> <chr>  
##  1 MB-0000             22            2 ER-/HER2-                    6.04 4ER+   
##  2 MB-0002             10            1 ER+/HER2- High Prolif        4.02 4ER+   
##  3 MB-0005             15            2 <NA>                         4.03 3      
##  4 MB-0006             25            2 <NA>                         4.05 9      
##  5 MB-0008             40            2 ER+/HER2- High Prolif        6.08 9      
##  6 MB-0010             31            4 ER+/HER2- High Prolif        4.06 7      
##  7 MB-0014             10            2 <NA>                         4.02 3      
##  8 MB-0022             29            2 <NA>                         4.06 3      
##  9 MB-0028             16            2 ER+/HER2- High Prolif        5.03 9      
## 10 MB-0035             28            2 ER+/HER2- High Prolif        3.06 3      
## # … with 1,894 more rows, and abbreviated variable names
## #   ¹​Nottingham_prognostic_index, ²​Integrative_cluster
…
