Week 5 – Data manipulation with dplyr
…
Finally, we’ll return to plotting and look at a powerful feature of
ggplot2, faceting, that allows you to divide your plots
into subplots by splitting the observations based on one or more
categorical variables.

We’ll again use the METABRIC data set to illustrate how these
operations work.

metabric <- read_csv("data/metabric_clinical_and_expression_data.csv")
metabric

## # A tibble: 1,904 × 32
##    Patient_ID Cohort Age_at_diagnosis Survival_time Survival_status Vital_status
##    <chr>       <dbl>            <dbl>         <dbl> <chr>           <chr>       
##  1 MB-0000         1             75.6         140.  LIVING          Living      
##  2 MB-0002         1             43.2          84.6 LIVING          Living      
##  3 MB-0005         1             48.9         164.  DECEASED        Died of Dis…
##  4 MB-0006         1             47.7         165.  LIVING          Living      
##  5 MB-0008         1             77.0          41.4 DECEASED        Died of Dis…
##  6 MB-0010         1             78.8           7.8 DECEASED        Died of Dis…
##  7 MB-0014         1             56.4         164.  LIVING          Living      
##  8 MB-0022         1             89.1          99.5 DECEASED        Died of Oth…
##  9 MB-0028         1             86.4          36.6 DECEASED        Died of Oth…
## 10 MB-0035         1             84.2          36.3 DECEASED        Died of Dis…
## # ℹ 1,894 more rows
## # ℹ 26 more variables: Chemotherapy <chr>, Radiotherapy <chr>,
## #   Tumour_size <dbl>, Tumour_stage <dbl>, Neoplasm_histologic_grade <dbl>,
## #   Lymph_nodes_examined_positive <dbl>, Lymph_node_status <dbl>,
## #   Cancer_type <chr>, ER_status <chr>, PR_status <chr>, HER2_status <chr>,
## #   HER2_status_measured_by_SNP6 <chr>, PAM50 <chr>, `3-gene_classifier` <chr>,
## #   Nottingham_prognostic_index <dbl>, Cellularity <chr>, …
…
Chaining operations using %>%

Let’s consider again an earlier example in which we filtered the
METABRIC data set to retain just the patients who were still alive at
the time of the study and had survived for more than 10 years (120
months). We use filter() to select the rows corresponding
to the patients meeting these criteria and can then use
select() to only display the variables (columns) we’re most
interested in.

patients_of_interest <- filter(metabric, Survival_status == "LIVING", Survival_time > 120)
patient_details_of_interest <- select(patients_of_interest, Patient_ID, Survival_time, Tumour_stage, Nottingham_prognostic_index)
patient_details_of_interest

## # A tibble: 545 × 4
##    Patient_ID Survival_time Tumour_stage Nottingham_prognostic_index
##    <chr>              <dbl>        <dbl>                       <dbl>
##  1 MB-0000             140.            2                        6.04
##  2 MB-0006             165.            2                        4.05
##  3 MB-0014             164.            2                        4.02
##  4 MB-0039             164.            1                        2.04
##  5 MB-0045             165.            2                        5.04
##  6 MB-0053             161.            2                        3.05
##  7 MB-0054             160.            2                        4.07
##  8 MB-0060             141.            2                        4.05
##  9 MB-0062             154.            1                        4.03
## 10 MB-0066             157.            2                        4.03
## # ℹ 535 more rows
…
At each stage we look at the resulting
patients_of_interest data frame to check we’re happy with
the result.

Finally we only want certain columns, so we add a
select() operation.

patients_of_interest <- metabric %>%
  filter(Survival_status == "LIVING") %>%
  filter(Survival_time > 120) %>%
  select(Patient_ID, Survival_time, Tumour_stage, Nottingham_prognostic_index)
# print out the result
patients_of_interest

## # A tibble: 545 × 4
##    Patient_ID Survival_time Tumour_stage Nottingham_prognostic_index
##    <chr>              <dbl>        <dbl>                       <dbl>
##  1 MB-0000             140.            2                        6.04
##  2 MB-0006             165.            2                        4.05
##  3 MB-0014             164.            2                        4.02
##  4 MB-0039             164.            1                        2.04
##  5 MB-0045             165.            2                        5.04
##  6 MB-0053             161.            2                        3.05
##  7 MB-0054             160.            2                        4.07
##  8 MB-0060             141.            2                        4.05
##  9 MB-0062             154.            1                        4.03
## 10 MB-0066             157.            2                        4.03
## # ℹ 535 more rows
…
Sorting using arrange()

It is sometimes quite useful to sort our data frame based on the
values in one or more of the columns, particularly when displaying the
contents or saving them to a file. The arrange() function
in dplyr provides this sorting capability.

For example, we can sort the METABRIC patients into order of
increasing survival time.

arrange(metabric, Survival_time)

## # A tibble: 1,904 × 32
##    Patient_ID Cohort Age_at_diagnosis Survival_time Survival_status Vital_status
##    <chr>       <dbl>            <dbl>         <dbl> <chr>           <chr>       
##  1 MB-0284         1             51.4         0     LIVING          Living      
##  2 MB-6229         5             75.3         0.1   DECEASED        Died of Dis…
##  3 MB-0627         1             54.1         0.767 LIVING          Living      
##  4 MB-0880         1             73.6         1.23  LIVING          Living      
##  5 MB-0125         1             74.0         1.27  LIVING          Living      
##  6 MB-0374         1             34.7         1.43  LIVING          Living      
##  7 MB-0148         1             53.2         1.77  LIVING          Living      
##  8 MB-5525         3             63.2         2     LIVING          Living      
##  9 MB-6092         5             80.6         2.3   DECEASED        Died of Oth…
## 10 MB-0117         1             60.1         2.4   LIVING          Living      
## # ℹ 1,894 more rows
## # ℹ 26 more variables: Chemotherapy <chr>, Radiotherapy <chr>,
## #   Tumour_size <dbl>, Tumour_stage <dbl>, Neoplasm_histologic_grade <dbl>,
## #   Lymph_nodes_examined_positive <dbl>, Lymph_node_status <dbl>,
## #   Cancer_type <chr>, ER_status <chr>, PR_status <chr>, HER2_status <chr>,
## #   HER2_status_measured_by_SNP6 <chr>, PAM50 <chr>, `3-gene_classifier` <chr>,
## #   Nottingham_prognostic_index <dbl>, Cellularity <chr>, …

Or we might be more interested in the patients that survived the
longest so would need the order to be of decreasing survival time. For
that we can use the helper function desc() that works
specifically with arrange().

arrange(metabric, desc(Survival_time))

## # A tibble: 1,904 × 32
##    Patient_ID Cohort Age_at_diagnosis Survival_time Survival_status Vital_status
##    <chr>       <dbl>            <dbl>         <dbl> <chr>           <chr>       
##  1 MB-4189         3             61.0          355. DECEASED        Died of Oth…
##  2 MB-4079         3             63.2          351  DECEASED        Died of Oth…
##  3 MB-0270         1             30.0          337. LIVING          Living      
##  4 MB-4235         3             67.5          336. DECEASED        Died of Dis…
##  5 MB-4292         3             58.8          336. DECEASED        Died of Oth…
##  6 MB-4212         3             45.5          330. LIVING          Living      
##  7 MB-4548         3             50.4          323. LIVING          Living      
##  8 MB-4633         3             67.0          318. LIVING          Living      
##  9 MB-4332         3             34.4          308. LIVING          Living      
## 10 MB-4418         3             56.1          308. LIVING          Living      
## # ℹ 1,894 more rows
## # ℹ 26 more variables: Chemotherapy <chr>, Radiotherapy <chr>,
## #   Tumour_size <dbl>, Tumour_stage <dbl>, Neoplasm_histologic_grade <dbl>,
## #   Lymph_nodes_examined_positive <dbl>, Lymph_node_status <dbl>,
## #   Cancer_type <chr>, ER_status <chr>, PR_status <chr>, HER2_status <chr>,
## #   HER2_status_measured_by_SNP6 <chr>, PAM50 <chr>, `3-gene_classifier` <chr>,
## #   Nottingham_prognostic_index <dbl>, Cellularity <chr>, …

As with the other tidyverse functions and, in particular, the other 4
key dplyr ‘verbs’, arrange() works rather well in workflows
in which successive operations are chained using
%>%.

patients_of_interest <- metabric %>%
  filter(Survival_status == "LIVING") %>%
  filter(Survival_time > 120) %>%
  select(Patient_ID, Survival_time, Tumour_stage, Nottingham_prognostic_index) %>%
  arrange(desc(Survival_time))
# print out the result
patients_of_interest

## # A tibble: 545 × 4
##    Patient_ID Survival_time Tumour_stage Nottingham_prognostic_index
##    <chr>              <dbl>        <dbl>                       <dbl>
##  1 MB-0270             337.            2                        4.03
##  2 MB-4212             330.           NA                        3.04
##  3 MB-4548             323.            2                        5.00
##  4 MB-4633             318.            2                        5.05
##  5 MB-4332             308.            1                        4.04
##  6 MB-4418             308.            1                        3.04
##  7 MB-6021             301.           NA                        3   
##  8 MB-4702             301.            2                        4.07
##  9 MB-4839             299.           NA                        1.02
## 10 MB-4735             298.            2                        3.08
## # ℹ 535 more rows

We can sort by more than one variable by adding more variable
arguments to arrange().

arrange(patients_of_interest, Tumour_stage, Nottingham_prognostic_index)

## # A tibble: 545 × 4
##    Patient_ID Survival_time Tumour_stage Nottingham_prognostic_index
##    <chr>              <dbl>        <dbl>                       <dbl>
##  1 MB-0230             200.            0                        1.07
##  2 MB-5186             203.            1                        1.02
##  3 MB-0245             165.            1                        1.03
##  4 MB-0318             169.            1                        1.04
##  5 MB-3797             228.            1                        1.05
##  6 MB-4897             197.            1                        2.00
##  7 MB-2721             252.            1                        2.02
##  8 MB-0275             186.            1                        2.02
##  9 MB-2564             285.            1                        2.02
## 10 MB-0244             150.            1                        2.02
## # ℹ 535 more rows
…
N is the node status (0 nodes = 1, 1-3 nodes = 2, >3
nodes = 3)

G is the grade of tumour (Grade I = 1, Grade II = 2,
Grade III = 3)

We’ll recalculate the Nottingham prognostic index using the values
Tumour_size, Neoplasm_histologic_grade and
Lymph_node_status columns in our METABRIC data frame.

metabric <- mutate(metabric, NPI = 0.2 * Tumour_size + Lymph_node_status + Neoplasm_histologic_grade)
select(metabric, Tumour_size, Lymph_node_status, Neoplasm_histologic_grade, NPI, Nottingham_prognostic_index)

## # A tibble: 1,904 × 5
##    Tumour_size Lymph_node_status Neoplasm_histologic_grade   NPI
##          <dbl>             <dbl>                     <dbl> <dbl>
##  1         2.2                 3                         3  6.44
##  2         1                   1                         3  4.2 
##  3         1.5                 2                         2  4.3 
##  4         2.5                 2                         2  4.5 
##  5         4                   3                         3  6.8 
##  6         3.1                 1                         3  4.62
##  7         1                   2                         2  4.2 
##  8         2.9                 2                         2  4.58
##  9         1.6                 2                         3  5.32
## 10         2.8                 1                         2  3.56
## # ℹ 1,894 more rows
## # ℹ 1 more variable: Nottingham_prognostic_index <dbl>
…
read_csv("data/metabric_clinical_and_expression_data.csv") %>%
  mutate(Tumour_size = Tumour_size / 10) %>%
  mutate(NPI = 0.2 * Tumour_size + Lymph_node_status + Neoplasm_histologic_grade) %>%
  mutate(Tumour_size = round(Tumour_size, digits = 1)) %>%
  mutate(NPI = round(NPI, digits = 1)) %>%
  arrange(desc(NPI)) %>%
  select(Tumour_size, Lymph_node_status, Neoplasm_histologic_grade, NPI)

## # A tibble: 1,904 × 4
##    Tumour_size Lymph_node_status Neoplasm_histologic_grade   NPI
##          <dbl>             <dbl>                     <dbl> <dbl>
##  1        18                   3                         3   9.6
##  2        16                   3                         3   9.2
##  3        15                   3                         3   9  
##  4        13                   3                         3   8.6
##  5        18.2                 2                         3   8.6
##  6        12                   3                         3   8.4
##  7        10                   3                         3   8  
##  8         9.9                 3                         3   8  
##  9         9.9                 3                         3   8  
## 10         8.4                 3                         3   7.7
## # ℹ 1,894 more rows

Mutating multiple columns

In that last workflow we included the same rounding operation applied
to two different variables. It would be nice to be able to carry out
just the one mutate() but apply it to both
Tumour_size and NPI columns and we can using
mutate_at().

metabric %>%
  mutate_at(vars(Tumour_size, NPI), round, digits = 1) %>%
  select(Patient_ID, Tumour_size, NPI)

## # A tibble: 1,904 × 3
##    Patient_ID Tumour_size   NPI
##    <chr>            <dbl> <dbl>
##  1 MB-0000            2.2   6.4
##  2 MB-0002            1     4.2
##  3 MB-0005            1.5   4.3
##  4 MB-0006            2.5   4.5
##  5 MB-0008            4     6.8
##  6 MB-0010            3.1   4.6
##  7 MB-0014            1     4.2
##  8 MB-0022            2.9   4.6
##  9 MB-0028            1.6   5.3
## 10 MB-0035            2.8   3.6
## # ℹ 1,894 more rows
…
We can use the range operator and the same helper functions as we did
for selecting columns using select() inside
vars().

For example, we might decide that our expression values are given to
a much higher degree of precision than is strictly necessary.

metabric %>%
  mutate_at(vars(ESR1:MLPH), round, digits = 2) %>%
  select(Patient_ID, ESR1:MLPH)

## # A tibble: 1,904 × 9
##    Patient_ID  ESR1 ERBB2   PGR  TP53 PIK3CA GATA3 FOXA1  MLPH
##    <chr>      <dbl> <dbl> <dbl> <dbl>  <dbl> <dbl> <dbl> <dbl>
##  1 MB-0000     8.93  9.33  5.68  6.34   5.7   6.93  7.95  9.73
##  2 MB-0002    10.0   9.73  7.51  6.19   5.76 11.2  11.8  12.5 
##  3 MB-0005    10.0   9.73  7.38  6.4    6.75  9.29 11.7  10.3 
##  4 MB-0006    10.4  10.3   6.82  6.87   7.22  8.67 11.9  10.5 
##  5 MB-0008    11.3   9.96  7.33  6.34   5.82  9.72 11.6  12.2 
##  6 MB-0010    11.2   9.74  5.95  5.42   6.12  9.79 12.1  11.4 
##  7 MB-0014    10.8   9.28  7.72  5.99   7.48  8.37 11.5  10.8 
##  8 MB-0022    10.4   8.61  5.59  6.17   7.59  7.87 10.7   9.95
##  9 MB-0028    12.5  10.7   5.33  6.22   6.25 10.3  12.2  10.9 
## 10 MB-0035     7.54 11.5   5.59  6.41   5.99 10.2  12.8  13.5 
## # ℹ 1,894 more rows

Or we could decide that all the columns whose names end with
“_status” are in fact categorical variables and should be converted to
factors.

metabric %>%
  mutate_at(vars(ends_with("_status")), as.factor) %>%
  select(Patient_ID, ends_with("_status"))

## # A tibble: 1,904 × 7
##    Patient_ID Survival_status Vital_status Lymph_node_status ER_status PR_status
##    <chr>      <fct>           <fct>        <fct>             <fct>     <fct>    
##  1 MB-0000    LIVING          Living       3                 Positive  Negative 
##  2 MB-0002    LIVING          Living       1                 Positive  Positive 
##  3 MB-0005    DECEASED        Died of Dis… 2                 Positive  Positive 
##  4 MB-0006    LIVING          Living       2                 Positive  Positive 
##  5 MB-0008    DECEASED        Died of Dis… 3                 Positive  Positive 
##  6 MB-0010    DECEASED        Died of Dis… 1                 Positive  Positive 
##  7 MB-0014    LIVING          Living       2                 Positive  Positive 
##  8 MB-0022    DECEASED        Died of Oth… 2                 Positive  Negative 
##  9 MB-0028    DECEASED        Died of Oth… 2                 Positive  Negative 
## 10 MB-0035    DECEASED        Died of Dis… 1                 Positive  Negative 
## # ℹ 1,894 more rows
## # ℹ 1 more variable: HER2_status <fct>
…
There is no ‘multiply by 10’ function and it seems a bit pointless to
create one just for this conversion so we’ll use an anonymous function
instead – anonymous because it has no name, it’s an in situ
function only used in our mutate_at() function call.

iris %>%
  as_tibble() %>%
  mutate_at(vars(Sepal.Length:Petal.Width), ~ . * 10)

## # A tibble: 150 × 5
##    Sepal.Length Sepal.Width Petal.Length Petal.Width Species
##           <dbl>       <dbl>        <dbl>       <dbl> <fct>  
##  1           51          35           14           2 setosa 
##  2           49          30           14           2 setosa 
##  3           47          32           13           2 setosa 
##  4           46          31           15           2 setosa 
##  5           50          36           14           2 setosa 
##  6           54          39           17           4 setosa 
##  7           46          34           14           3 setosa 
##  8           50          34           15           2 setosa 
##  9           44          29           14           2 setosa 
## 10           49          31           15           1 setosa 
## # ℹ 140 more rows
…
